          ____ _            _                        _       ____                           
         / ___| | ___   ___| | ____      _____  _ __| | __  / ___| __ _ _ __ ___   ___  ___ 
        | |   | |/ _ \ / __| |/ /\ \ /\ / / _ \| '__| |/ / | |  _ / _` | '_ ` _ \ / _ \/ __|
        | |___| | (_) | (__|   <  \ V  V / (_) | |  |   <  | |_| | (_| | | | | | |  __/\__ \
         \____|_|\___/ \___|_|\_\  \_/\_/ \___/|_|  |_|\_\  \____|\__,_|_| |_| |_|\___||___/
                                                                                                                
