                                   _   _           _          _ 
                                  | \ | |         (_)        (_)
                                  |  \| | __ _ _____ ___  ___ _ 
                                  | . ` |/ _` |_  / / __|/ __| |
                                  | |\  | (_| |/ /| \__ \ (__| |
                                  \_| \_/\__,_/___|_|___/\___|_|                                                   
                                            __   _____  
                                            \ \ / / __| 
                                             \ V /\__ \ 
                                              \_/ |___/                                                     
                                    ______                      
                                    | ___ \                     
                                    | |_/ /   _ ___  ___ _   _  
                                    |    / | | / __|/ __| | | | 
                                    | |\ \ |_| \__ \ (__| |_| | 
                                    \_| \_\__,_|___/\___|\__, | 
                                                          __/ |        
                                                         |___/  
                                            __   _____  
                                            \ \ / / __| 
                                             \ V /\__ \ 
                                              \_/ |___/
                                    _____                 _    _ 
                                   /  ___|               | |  (_)
                                   \ `--. _ __ ___   ___ | | ___ 
                                    `--. \ '_ ` _ \ / _ \| |/ / |
                                   /\__/ / | | | | | (_) |   <| |
                                   \____/|_| |_| |_|\___/|_|\_\_|



